<?xml version="1.0"?>
<svg xmlns="http://www.w3.org/2000/svg" xmlns:xlink="http://www.w3.org/1999/xlink" version="1.1" id="Capa_1" x="0px" y="0px" viewBox="0 0 512 512" style="enable-background:new 0 0 512 512;" xml:space="preserve" width="512" height="512"><g><g>
	<g>
		<path d="M394.858,406.018H193.33l-15.692-61.496h262.521l56.724-226.892H307.957V0h-30v117.629H119.741L99.422,38H15.116v30h61    l87.013,340.998c-20.648,7.243-35.5,26.92-35.5,50.011c0,29.219,23.772,52.991,52.991,52.991s52.991-23.772,52.991-52.991    c0-8.233-1.888-16.033-5.253-22.991h118.76c-3.365,6.958-5.253,14.758-5.253,22.991c0,29.219,23.771,52.991,52.991,52.991    c29.22,0,52.991-23.772,52.991-52.991S424.077,406.018,394.858,406.018z M127.397,147.629h150.56v68.506l-35.892-35.891    l-21.213,21.213l72.104,72.105l72.104-72.105l-21.213-21.213l-35.892,35.891v-68.506h150.501l-41.724,166.892H169.983    L127.397,147.629z M180.621,482c-12.677,0-22.991-10.314-22.991-22.991s10.314-22.991,22.991-22.991s22.991,10.314,22.991,22.991    S193.298,482,180.621,482z M394.858,482c-12.678,0-22.991-10.314-22.991-22.991s10.313-22.991,22.991-22.991    c12.678,0,22.991,10.314,22.991,22.991S407.535,482,394.858,482z" data-original="#000000" class="active-path" style="fill:#259530" data-old_color="#000000"/>
	</g>
</g></g> </svg>
