{
  "$schema": "http://json-schema.org/draft-04/schema",
  "type": "object",
  "title": "PriceListCategory schema",
  "required": ["id", "name", "imageUrl", "priceListItems"],
  "properties": {
    "id": { "type": "integer", "minimum": 1 },
    "name": { "type": "string" },
    "imageUrl": { "type": "string" },
    "priceListItems": {
      "type": "array",
      "uniqueItems": true,
      "additionalItems": false,
      "items": {
        "anyOf": [
          {
            "type": "object",
            "required": ["id", "name", "price", "isPriceFrom"],
            "properties": {
              "id": { "type": "integer", "minimum": 1 },
              "name": { "type": "string" },
              "price": { "type": "integer", "minimum": 0 },
              "isPriceFrom": { "type": "boolean" }
            },
            "additionalProperties": false
          }
        ]
      }
    }
  },
  "additionalProperties": false
}
