{
  "$schema": "http://json-schema.org/draft-04/schema",
  "type": "array",
  "title": "PriceList schema",
  "uniqueItems": true,
  "additionalItems": false,
  "items": { "anyOf": [{ "$ref": "price-list-category.json" }] }
}
